Simmental Animal Locations
…
Troy Rowan

2020-08-31

Simmental data dump locations

Reading in phenotypes, pedigree, etc.

Pulling lab IDs for genotype dump

This is from the animal table as of August 21st, 2020 Harly turned this into an RDS file using one of her scripts and weird suite of packages (almost broke her computer) This behaved a bit curiously as I kept dropping ~10 K animals from the Simmental data sheet that I read in. Turns out that they had repeated records for mature weight, so the same cow could be listed multiple times. Upon filtering those out and matching as many animals as possible to a Reg or Ref_ID based on their ASA Registration number, I get 100,559 distinct lab IDs. They’re written out and sent to Bob for a data dump on CIFS prior to imputation on Lewis.

There are 99,932 individuals that are adequately accoutned for in the database

# A tibble: 98,432 x 2
# Groups:   asa_nbr [98,432]
   asa_nbr     n
   <chr>   <int>
 1 2378503     7
 2 2585172     7
 3 2618240     7
 4 2671799     7
 5 2724093     7
 6 2724097     7
 7 2724108     7
 8 2724110     7
 9 2724117     7
10 2724129     7
# ... with 98,422 more rows
…
